{
  "_embedded": {
    "movies": [
      {
        "title": "The Shawshank Redemption",
        "year": 1994,
        "imdbId": "tt0111161",
        "rating": 9.3,
        "rank": 1,
        "thumb": "/movie-data/thumbs/tt0111161.jpg",
        "_links": {
          "self": {
            "href": "http://localhost:3000/api/movies/1"
          },
          "directors": {
            "href": "http://localhost:3000/api/directors/2",
            "name": "Frank Darabont"
          }
        }
      }
    ]
  },
  "_links": {
    "self": {
      "href": "http://localhost:3000/api/movies?page=0&size=1"
    },
    "next": {
      "href": "http://localhost:3000/api/movies?page=1&size=1"
    },
    "last": {
      "href": "http://localhost:3000/api/movies?page=249&size=1"
    }
  },
  "_templates": {
    "default": {
      "title": "Create Movie",
      "method": "post",
      "properties": [
        {
          "name": "imdbId",
          "prompt": "IMDB Id"
        },
        {
          "name": "rank",
          "prompt": "Rank"
        },
        {
          "name": "rating",
          "prompt": "IMDB Rating"
        },
        {
          "name": "thumb",
          "prompt": "Poster"
        },
        {
          "name": "title",
          "prompt": "Title",
          "required": true
        },
        {
          "name": "year",
          "prompt": "Release Year",
          "regex": "\\d{4}$"
        }
      ]
    }
  },
  "page": {
    "size": 1,
    "totalElements": 250,
    "totalPages": 250,
    "number": 0
  }
}

