{
  "_embedded": {
    "movies": [
      {
        "title": "The Shawshank Redemption",
        "year": 1994,
        "imdbId": "tt0111161",
        "rating": 9.3,
        "rank": 1,
        "thumb": "/movie-data/thumbs/tt0111161.jpg",
        "_links": {
          "self": {
            "href": "https://toedter.github.io/hal-explorer/snapshot/hal-explorer/examples/api/movies/1"
          },
          "directors": {
            "href": "https://toedter.github.io/hal-explorer/snapshot/hal-explorer/examples/api/directors/2",
            "name": "Frank Darabont"
          }
        }
      }
    ]
  },
  "_links": {
    "self": {
      "href": "https://toedter.github.io/hal-explorer/snapshot/hal-explorer/examples/api/movies?page=0&size=1"
    },
    "next": {
      "href": "https://toedter.github.io/hal-explorer/snapshot/hal-explorer/examples/api/movies?page=1&size=1"
    },
    "last": {
      "href": "https://toedter.github.io/hal-explorer/snapshot/hal-explorer/examples/api/movies?page=249&size=1"
    }
  },
  "page": {
    "size": 1,
    "totalElements": 250,
    "totalPages": 250,
    "number": 0
  }
}

